<svg width="15" height="15" viewBox="0 0 15 15" fill="none" xmlns="http://www.w3.org/2000/svg">
<path d="M14.6131 2.46167C14.3961 2.24918 14.1391 2.14333 13.8411 2.14333H12.7421V1.34C12.7421 0.97167 12.6071 0.65583 12.3381 0.39416C12.0691 0.13166 11.7461 0 11.3681 0H10.8191C10.4411 0 10.1181 0.13166 9.84811 0.39416C9.57911 0.65583 9.44511 0.97167 9.44511 1.34V2.14333H6.1481V1.34C6.1481 0.97167 6.01311 0.65583 5.74411 0.39416C5.47511 0.13166 5.1511 0 4.7731 0H4.22511C3.84711 0 3.5231 0.13166 3.2541 0.39416C2.9851 0.65583 2.85011 0.97167 2.85011 1.34V2.14333H1.75211C1.45311 2.14333 1.19611 2.24918 0.979111 2.46167C0.761111 2.67334 0.6521 2.925 0.6521 3.215V13.9292C0.6521 14.2192 0.761111 14.47 0.979111 14.6825C1.19611 14.8942 1.45311 15 1.75211 15H13.8401C14.1381 15 14.3961 14.8942 14.6131 14.6825C14.8311 14.47 14.9401 14.2192 14.9401 13.9292V3.215C14.9401 2.92417 14.8311 2.67334 14.6131 2.46167ZM4.22511 13.9292H1.75211V11.5183H4.22511V13.9292ZM4.22511 10.9825H1.75211V8.3042H4.22511V10.9825ZM4.22511 7.7683H1.75211V5.3575H4.22511V7.7683ZM4.03111 3.93916C3.97711 3.88582 3.94911 3.82334 3.94911 3.75084V1.34C3.94911 1.2675 3.97711 1.20416 4.03111 1.15166C4.08511 1.09832 4.14911 1.07168 4.22511 1.07168H4.7731C4.8481 1.07168 4.9131 1.09832 4.9671 1.15166C5.0211 1.20416 5.0491 1.2675 5.0491 1.34V3.75084C5.0491 3.82334 5.0211 3.88582 4.9671 3.93916C4.9131 3.99166 4.8491 4.01833 4.7731 4.01833H4.22511C4.15011 4.01833 4.08511 3.99166 4.03111 3.93916ZM7.52211 13.9292H4.7731V11.5183H7.52211V13.9292ZM7.52211 10.9825H4.7731V8.3042H7.52211V10.9825ZM7.52211 7.7683H4.7731V5.3575H7.52211V7.7683ZM10.8191 13.9292H8.07111V11.5183H10.8191V13.9292ZM10.8191 10.9825H8.07111V8.3042H10.8191V10.9825ZM10.8191 7.7683H8.07111V5.3575H10.8191V7.7683ZM10.6251 3.93916C10.5711 3.88582 10.5441 3.82334 10.5441 3.75084V1.34C10.5441 1.2675 10.5711 1.20416 10.6251 1.15166C10.6791 1.09832 10.7441 1.07168 10.8191 1.07168H11.3681C11.4431 1.07168 11.5071 1.09832 11.5611 1.15166C11.6151 1.20416 11.6431 1.2675 11.6431 1.34V3.75084C11.6431 3.82334 11.6151 3.88582 11.5611 3.93916C11.5071 3.99166 11.4431 4.01833 11.3681 4.01833H10.8191C10.7441 4.01833 10.6791 3.99166 10.6251 3.93916ZM13.8401 13.9292H11.3671V11.5183H13.8401V13.9292ZM13.8401 10.9825H11.3671V8.3042H13.8401V10.9825ZM13.8401 7.7683H11.3671V5.3575H13.8401V7.7683Z" fill="#4742CD"/>
</svg>
