<svg width="10" height="10" viewBox="0 0 10 10" fill="none" xmlns="http://www.w3.org/2000/svg">
<g clip-path="url(#clip0)">
<path d="M9.88588 2.58565C9.73348 2.43293 9.48617 2.4327 9.33344 2.58508L5.27621 6.63389C5.12389 6.7862 4.87609 6.78618 4.7235 6.6336L0.666563 2.58508C0.513848 2.43268 0.266543 2.43293 0.114121 2.58565C-0.0382615 2.73836 -0.0380076 2.98569 0.114688 3.13807L4.17135 7.18631C4.39988 7.41481 4.69998 7.52903 5.00012 7.52903C5.30008 7.52903 5.6001 7.41485 5.82834 7.18659L9.88531 3.13807C10.038 2.98569 10.0383 2.73836 9.88588 2.58565Z" fill="black"/>
</g>
<defs>
<clipPath id="clip0">
<rect width="10" height="10" fill="white"/>
</clipPath>
</defs>
</svg>
